<mxfile modified="2022-08-13T15:29:20.993Z" host="app.diagrams.net" agent="5.0 (Windows NT 10.0; Win64; x64) AppleWebKit/537.36 (KHTML, like Gecko) Chrome/104.0.0.0 Safari/537.36" etag="8ZFe7exqPVSZcqaZKjli" version="20.2.2" type="gitlab">
  <diagram id="C2fSY1v2SiZeoUbDoYyL" name="Page-1">
    <mxGraphModel dx="1053" dy="552" grid="1" gridSize="25" guides="1" tooltips="1" connect="1" arrows="1" fold="1" page="1" pageScale="1" pageWidth="850" pageHeight="550" math="0" shadow="1">
      <root>
        <mxCell id="0" />
        <mxCell id="1" parent="0" />
        <mxCell id="9PyfbwmdTV0k7tI-Fm5S-26" value="" style="html=1;rounded=1;sketch=0;fontSize=14;fontColor=#000000;curved=0;endArrow=none;endFill=0;strokeWidth=4;fillColor=#f5f5f5;strokeColor=#A8A8A8;" parent="1" edge="1">
          <mxGeometry width="100" relative="1" as="geometry">
            <mxPoint x="25" y="100" as="sourcePoint" />
            <mxPoint x="800" y="100" as="targetPoint" />
          </mxGeometry>
        </mxCell>
        <mxCell id="9PyfbwmdTV0k7tI-Fm5S-27" value="" style="html=1;rounded=1;sketch=0;fontSize=14;fontColor=#000000;curved=0;endArrow=none;endFill=0;strokeWidth=4;fillColor=#f5f5f5;strokeColor=#A8A8A8;" parent="1" edge="1">
          <mxGeometry width="100" relative="1" as="geometry">
            <mxPoint x="25.000000000000114" y="200" as="sourcePoint" />
            <mxPoint x="800" y="200" as="targetPoint" />
          </mxGeometry>
        </mxCell>
        <mxCell id="9PyfbwmdTV0k7tI-Fm5S-28" value="" style="html=1;rounded=1;sketch=0;fontSize=14;fontColor=#000000;curved=0;endArrow=none;endFill=0;strokeWidth=4;fillColor=#d5e8d4;strokeColor=#82b366;" parent="1" edge="1">
          <mxGeometry width="100" relative="1" as="geometry">
            <mxPoint x="25.000000000000114" y="296" as="sourcePoint" />
            <mxPoint x="800" y="296" as="targetPoint" />
          </mxGeometry>
        </mxCell>
        <mxCell id="ZhFV3ANxQABp4lbKPiNx-1" value="" style="endArrow=none;dashed=1;html=1;dashPattern=1 3;strokeWidth=2;sketch=0;fontSize=14;fontColor=#000000;curved=1;rounded=0;exitX=0;exitY=0.5;exitDx=0;exitDy=0;" parent="1" source="9PyfbwmdTV0k7tI-Fm5S-19" edge="1">
          <mxGeometry width="50" height="50" relative="1" as="geometry">
            <mxPoint x="331" y="381" as="sourcePoint" />
            <mxPoint x="300" y="396" as="targetPoint" />
          </mxGeometry>
        </mxCell>
        <mxCell id="IWMVR2ET18jJwuyu3YAv-1" value="" style="endArrow=none;dashed=1;html=1;strokeWidth=2;sketch=0;fontSize=14;fontColor=#000000;curved=1;rounded=0;exitX=1;exitY=0.5;exitDx=0;exitDy=0;" edge="1" parent="1" source="DKJSTIJYSntlI0UVyFpu-10">
          <mxGeometry width="50" height="50" relative="1" as="geometry">
            <mxPoint x="475" y="425" as="sourcePoint" />
            <mxPoint x="600" y="450" as="targetPoint" />
            <Array as="points">
              <mxPoint x="525" y="450" />
            </Array>
          </mxGeometry>
        </mxCell>
        <mxCell id="9PyfbwmdTV0k7tI-Fm5S-18" value="defense" parent="0" />
        <mxCell id="9PyfbwmdTV0k7tI-Fm5S-17" value="offense" parent="0" />
        <mxCell id="9PyfbwmdTV0k7tI-Fm5S-19" value="QB" style="shape=ellipse;html=1;dashed=0;whitespace=wrap;aspect=fixed;perimeter=ellipsePerimeter;rounded=0;labelBorderColor=none;sketch=0;fontColor=#000000;strokeWidth=5;fillColor=none;fontSize=14;" parent="9PyfbwmdTV0k7tI-Fm5S-17" vertex="1">
          <mxGeometry x="391" y="379" width="34" height="34" as="geometry" />
        </mxCell>
        <mxCell id="9PyfbwmdTV0k7tI-Fm5S-20" value="C" style="html=1;dashed=0;whitespace=wrap;rounded=0;labelBorderColor=none;sketch=0;fontColor=#000000;strokeWidth=5;fillColor=none;glass=0;shadow=0;fontSize=14;" parent="9PyfbwmdTV0k7tI-Fm5S-17" vertex="1">
          <mxGeometry x="391" y="316" width="34" height="34" as="geometry" />
        </mxCell>
        <mxCell id="9PyfbwmdTV0k7tI-Fm5S-21" value="WR" style="shape=ellipse;html=1;dashed=0;whitespace=wrap;aspect=fixed;perimeter=ellipsePerimeter;rounded=0;labelBorderColor=none;sketch=0;fontColor=#000000;strokeWidth=5;fillColor=none;fontSize=14;verticalAlign=middle;" parent="9PyfbwmdTV0k7tI-Fm5S-17" vertex="1">
          <mxGeometry x="680" y="316" width="34" height="34" as="geometry" />
        </mxCell>
        <mxCell id="9PyfbwmdTV0k7tI-Fm5S-22" value="WR" style="shape=ellipse;html=1;dashed=0;whitespace=wrap;aspect=fixed;perimeter=ellipsePerimeter;rounded=0;labelBorderColor=none;sketch=0;fontColor=#000000;strokeWidth=5;fillColor=none;fontSize=14;verticalAlign=middle;" parent="9PyfbwmdTV0k7tI-Fm5S-17" vertex="1">
          <mxGeometry x="102" y="316" width="34" height="34" as="geometry" />
        </mxCell>
        <mxCell id="DKJSTIJYSntlI0UVyFpu-2" value="RB" style="shape=ellipse;html=1;dashed=0;whitespace=wrap;aspect=fixed;perimeter=ellipsePerimeter;rounded=0;labelBorderColor=none;sketch=0;fontColor=#000000;strokeWidth=5;fillColor=none;fontSize=14;" parent="9PyfbwmdTV0k7tI-Fm5S-17" vertex="1">
          <mxGeometry x="391" y="450" width="34" height="34" as="geometry" />
        </mxCell>
        <mxCell id="DKJSTIJYSntlI0UVyFpu-5" value="Run-Pitch-Right (RPR)" style="text;strokeColor=none;fillColor=none;html=1;fontSize=24;fontStyle=1;verticalAlign=middle;align=center;rounded=0;shadow=0;glass=0;labelBorderColor=none;sketch=0;fontColor=#000000;" parent="9PyfbwmdTV0k7tI-Fm5S-17" vertex="1">
          <mxGeometry x="358" y="25" width="100" height="40" as="geometry" />
        </mxCell>
        <mxCell id="DKJSTIJYSntlI0UVyFpu-23" value="" style="group;rotation=30;" parent="9PyfbwmdTV0k7tI-Fm5S-17" vertex="1" connectable="0">
          <mxGeometry x="430" y="383" width="24.69999999999999" height="45.73000000000002" as="geometry" />
        </mxCell>
        <mxCell id="DKJSTIJYSntlI0UVyFpu-10" value="" style="ellipse;whiteSpace=wrap;html=1;rounded=0;shadow=0;glass=0;labelBorderColor=none;sketch=0;fontSize=14;fontColor=#000000;strokeWidth=1;fillColor=#E58C5D;rotation=30;container=0;fontStyle=4" parent="DKJSTIJYSntlI0UVyFpu-23" vertex="1">
          <mxGeometry width="24.700000000000003" height="45.730000000000004" as="geometry" />
        </mxCell>
        <mxCell id="DKJSTIJYSntlI0UVyFpu-12" value="" style="endArrow=none;html=1;rounded=1;sketch=0;fontSize=14;fontColor=#000000;strokeColor=#000000;strokeWidth=1;curved=0;entryX=0.5;entryY=0;entryDx=0;entryDy=0;exitX=0.5;exitY=1;exitDx=0;exitDy=0;" parent="DKJSTIJYSntlI0UVyFpu-23" source="DKJSTIJYSntlI0UVyFpu-10" target="DKJSTIJYSntlI0UVyFpu-10" edge="1">
          <mxGeometry width="50" height="50" relative="1" as="geometry">
            <mxPoint x="22" y="41" as="sourcePoint" />
            <mxPoint x="62" y="31" as="targetPoint" />
          </mxGeometry>
        </mxCell>
        <mxCell id="DKJSTIJYSntlI0UVyFpu-13" value="" style="endArrow=none;html=1;rounded=1;sketch=0;fontSize=14;fontColor=#000000;strokeColor=#000000;strokeWidth=1;curved=0;exitX=0;exitY=0;exitDx=0;exitDy=0;entryX=1;entryY=0;entryDx=0;entryDy=0;" parent="DKJSTIJYSntlI0UVyFpu-23" source="DKJSTIJYSntlI0UVyFpu-10" target="DKJSTIJYSntlI0UVyFpu-10" edge="1">
          <mxGeometry width="50" height="50" relative="1" as="geometry">
            <mxPoint x="12" y="9" as="sourcePoint" />
            <mxPoint x="28" y="18" as="targetPoint" />
          </mxGeometry>
        </mxCell>
        <mxCell id="DKJSTIJYSntlI0UVyFpu-17" value="" style="endArrow=none;html=1;rounded=1;sketch=0;fontSize=14;fontColor=#000000;strokeColor=#000000;strokeWidth=1;curved=0;exitX=0;exitY=1;exitDx=0;exitDy=0;entryX=1;entryY=1;entryDx=0;entryDy=0;" parent="DKJSTIJYSntlI0UVyFpu-23" source="DKJSTIJYSntlI0UVyFpu-10" target="DKJSTIJYSntlI0UVyFpu-10" edge="1">
          <mxGeometry width="50" height="50" relative="1" as="geometry">
            <mxPoint x="1" y="24" as="sourcePoint" />
            <mxPoint x="16" y="33" as="targetPoint" />
          </mxGeometry>
        </mxCell>
        <mxCell id="DKJSTIJYSntlI0UVyFpu-18" value="" style="endArrow=none;html=1;rounded=1;sketch=0;fontSize=14;fontColor=#000000;strokeColor=#000000;strokeWidth=1;curved=0;exitX=0;exitY=1;exitDx=0;exitDy=0;" parent="DKJSTIJYSntlI0UVyFpu-23" edge="1">
          <mxGeometry width="50" height="50" relative="1" as="geometry">
            <mxPoint x="12" y="15" as="sourcePoint" />
            <mxPoint x="19" y="19" as="targetPoint" />
          </mxGeometry>
        </mxCell>
        <mxCell id="DKJSTIJYSntlI0UVyFpu-19" value="" style="endArrow=none;html=1;rounded=1;sketch=0;fontSize=14;fontColor=#000000;strokeColor=#000000;strokeWidth=1;curved=0;exitX=0;exitY=1;exitDx=0;exitDy=0;" parent="DKJSTIJYSntlI0UVyFpu-23" edge="1">
          <mxGeometry width="50" height="50" relative="1" as="geometry">
            <mxPoint x="9" y="21" as="sourcePoint" />
            <mxPoint x="16" y="25" as="targetPoint" />
          </mxGeometry>
        </mxCell>
        <mxCell id="DKJSTIJYSntlI0UVyFpu-20" value="" style="endArrow=none;html=1;rounded=1;sketch=0;fontSize=14;fontColor=#000000;strokeColor=#000000;strokeWidth=1;curved=0;exitX=0;exitY=1;exitDx=0;exitDy=0;" parent="DKJSTIJYSntlI0UVyFpu-23" edge="1">
          <mxGeometry width="50" height="50" relative="1" as="geometry">
            <mxPoint x="5" y="28" as="sourcePoint" />
            <mxPoint x="12" y="32" as="targetPoint" />
          </mxGeometry>
        </mxCell>
        <mxCell id="DKJSTIJYSntlI0UVyFpu-24" value="" style="endArrow=none;dashed=1;html=1;dashPattern=1 1;strokeWidth=2;sketch=0;fontSize=14;fontColor=#000000;curved=1;exitX=1;exitY=0.5;exitDx=0;exitDy=0;" parent="9PyfbwmdTV0k7tI-Fm5S-17" source="DKJSTIJYSntlI0UVyFpu-2" edge="1">
          <mxGeometry width="50" height="50" relative="1" as="geometry">
            <mxPoint x="439" y="446" as="sourcePoint" />
            <mxPoint x="775" y="100" as="targetPoint" />
            <Array as="points">
              <mxPoint x="825" y="500" />
            </Array>
          </mxGeometry>
        </mxCell>
        <mxCell id="DKJSTIJYSntlI0UVyFpu-25" value="" style="endArrow=none;dashed=1;html=1;dashPattern=1 3;strokeWidth=2;sketch=0;fontSize=14;fontColor=#000000;curved=1;exitX=0.5;exitY=0;exitDx=0;exitDy=0;" parent="9PyfbwmdTV0k7tI-Fm5S-17" source="9PyfbwmdTV0k7tI-Fm5S-20" edge="1">
          <mxGeometry width="50" height="50" relative="1" as="geometry">
            <mxPoint x="408" y="292" as="sourcePoint" />
            <mxPoint x="325" y="100" as="targetPoint" />
            <Array as="points">
              <mxPoint x="401" y="172" />
            </Array>
          </mxGeometry>
        </mxCell>
        <mxCell id="DKJSTIJYSntlI0UVyFpu-27" value="" style="endArrow=none;dashed=1;html=1;dashPattern=1 3;strokeWidth=2;sketch=0;fontSize=14;fontColor=#000000;curved=1;exitX=0.5;exitY=0;exitDx=0;exitDy=0;" parent="9PyfbwmdTV0k7tI-Fm5S-17" source="9PyfbwmdTV0k7tI-Fm5S-21" edge="1">
          <mxGeometry width="50" height="50" relative="1" as="geometry">
            <mxPoint x="696" y="316" as="sourcePoint" />
            <mxPoint x="175" y="200" as="targetPoint" />
            <Array as="points">
              <mxPoint x="550" y="175" />
            </Array>
          </mxGeometry>
        </mxCell>
        <mxCell id="DKJSTIJYSntlI0UVyFpu-28" value="" style="endArrow=none;dashed=1;html=1;dashPattern=1 3;strokeWidth=2;sketch=0;fontSize=14;fontColor=#000000;curved=1;exitX=0.5;exitY=0;exitDx=0;exitDy=0;" parent="9PyfbwmdTV0k7tI-Fm5S-17" source="9PyfbwmdTV0k7tI-Fm5S-22" edge="1">
          <mxGeometry width="50" height="50" relative="1" as="geometry">
            <mxPoint x="119" y="316" as="sourcePoint" />
            <mxPoint x="175" y="50" as="targetPoint" />
            <Array as="points">
              <mxPoint x="112" y="172" />
            </Array>
          </mxGeometry>
        </mxCell>
      </root>
    </mxGraphModel>
  </diagram>
</mxfile>
